{"meta":{"pagination":{"total":1663,"pages":84,"page":1,"limit":20,"links":{"previous":null,"current":"https://gorest.co.in/public/v1/users?page=1","next":"https://gorest.co.in/public/v1/users?page=2"}}},"data":[{"id":34,"name":"Amb. Baidehi Varma","email":"varma_amb_baidehi@hermann.name","gender":"female","status":"inactive"},{"id":35,"name":"Aadidev Tagore","email":"aadidev_tagore@oconner.info","gender":"male","status":"inactive"},{"id":36,"name":"Mr. Jaya Pothuvaal","email":"jaya_pothuvaal_mr@heller.co","gender":"male","status":"inactive"},{"id":37,"name":"Baladitya Gandhi","email":"baladitya_gandhi@bashirian.com","gender":"female","status":"active"},{"id":38,"name":"Tej Bhat","email":"bhat_tej@heaney.com","gender":"male","status":"inactive"},{"id":39,"name":"Nalini Kakkar","email":"nalini_kakkar@wolff.net","gender":"female","status":"inactive"},{"id":40,"name":"Urmila Agarwal","email":"urmila_agarwal@leannon-schuppe.net","gender":"female","status":"inactive"},{"id":41,"name":"Madhuri Bandopadhyay LLD","email":"bandopadhyay_lld_madhuri@kuphal-ebert.org","gender":"male","status":"inactive"},{"id":42,"name":"Krishnadas Bhattathiri","email":"krishnadas_bhattathiri@wunsch.io","gender":"female","status":"active"},{"id":44,"name":"Chaten Patil","email":"chaten_patil@shanahan-shields.io","gender":"male","status":"inactive"},{"id":46,"name":"Adityanandan Asan","email":"adityanandan_asan@ziemann-howell.biz","gender":"female","status":"active"},{"id":47,"name":"Jay Pilla","email":"jay_pilla@boehm-mitchell.com","gender":"male","status":"inactive"},{"id":48,"name":"Birjesh Dubashi PhD","email":"birjesh_dubashi_phd@upton-torphy.biz","gender":"female","status":"inactive"},{"id":49,"name":"Amaresh Namboothiri MD","email":"namboothiri_md_amaresh@crist.org","gender":"female","status":"inactive"},{"id":50,"name":"Menaka Iyengar","email":"menaka_iyengar@hayes-schaefer.io","gender":"male","status":"active"},{"id":51,"name":"Ambar Gowda","email":"ambar_gowda@rosenbaum.com","gender":"male","status":"inactive"},{"id":52,"name":"Manikya Mehra","email":"manikya_mehra@bergnaum.co","gender":"female","status":"active"},{"id":53,"name":"Ravi Embranthiri DO","email":"embranthiri_ravi_do@feest.io","gender":"male","status":"active"},{"id":54,"name":"Bilva Jha","email":"bilva_jha@considine.name","gender":"male","status":"inactive"},{"id":55,"name":"The Hon. Chandrani Marar","email":"chandrani_the_marar_hon@balistreri.info","gender":"female","status":"active"}]}